{
 "charts": [],
 "content": "[{\"id\":\"KnMRH4-jXQ\",\"type\":\"header\",\"data\":{\"text\":\"<span class=\\\"h4\\\">Projects</span>\",\"col\":12}},{\"id\":\"vYfqvUp6j2\",\"type\":\"shortcut\",\"data\":{\"shortcut_name\":\"Project\",\"col\":3}},{\"id\":\"hbB-PDP-Qo\",\"type\":\"shortcut\",\"data\":{\"shortcut_name\":\"Project Tasks\",\"col\":3}}]",
 "creation": "2024-05-15 12:19:56.278285",
 "custom_blocks": [],
 "docstatus": 0,
 "doctype": "Workspace",
 "for_user": "",
 "hide_custom": 0,
 "icon": "project",
 "idx": 0,
 "is_hidden": 0,
 "label": "Projects",
 "links": [],
 "modified": "2024-05-15 12:22:20.330489",
 "modified_by": "Administrator",
 "module": "Project Management",
 "name": "Projects",
 "number_cards": [],
 "owner": "Administrator",
 "parent_page": "",
 "public": 1,
 "quick_lists": [],
 "roles": [
  {
   "role": "All"
  }
 ],
 "sequence_id": 1.0,
 "shortcuts": [
  {
   "color": "Grey",
   "doc_view": "List",
   "label": "Project",
   "link_to": "Project",
   "stats_filter": "[]",
   "type": "DocType"
  },
  {
   "color": "Grey",
   "doc_view": "List",
   "label": "Project Tasks",
   "link_to": "Task",
   "stats_filter": "[]",
   "type": "DocType"
  }
 ],
 "title": "Projects"
}